Non-longitudinal hierarchical simulations. — hbl_sim_hierarchical • historicalborrowlong
…
matrices: A named list of model matrices.
See the model specification vignette for details.

    See also

    Other simulate: 
hbl_sim_independent(),
hbl_sim_pool()

    Examples

hbl_sim_hierarchical(n_continuous = 1)$data
#> # A tibble: 2,800 × 10
#>    study group patient   rep covariate_study1_continuous1 covariate_study2_con…¹
#>    <int> <int>   <int> <int>                        <dbl>                  <dbl>
#>  1     1     1       1     1                        0.342                      0
#>  2     1     1       1     2                        0.342                      0
#>  3     1     1       1     3                        0.342                      0
#>  4     1     1       1     4                        0.342                      0
#>  5     1     1       2     1                        1.01                       0
#>  6     1     1       2     2                        1.01                       0
#>  7     1     1       2     3                        1.01                       0
#>  8     1     1       2     4                        1.01                       0
#>  9     1     1       3     1                       -0.948                      0
#> 10     1     1       3     2                       -0.948                      0
#> # ℹ 2,790 more rows
#> # ℹ abbreviated name: ¹​covariate_study2_continuous1
#> # ℹ 4 more variables: covariate_study3_continuous1 <dbl>,
#> #   covariate_study4_continuous1 <dbl>, covariate_study5_continuous1 <dbl>,
#> #   response <dbl>
…
