Standardize data — hbl_data • historicalborrowlong
…
data$subject <- paste0("subject", data$subject)
data$visit <- paste0("visit", data$visit)
hbl_data(
  data = data,
  response = "change",
  study = "trial",
  study_reference = "trial1",
  group = "arm",
  group_reference = "arm1",
  patient = "subject",
  rep = "visit",
  rep_reference = "visit1",
  covariates = c("cov1", "cov2")
)
#> # A tibble: 1,600 × 11
#>    study patient patient_l…¹   rep rep_l…² respo…³ study…⁴ group…⁵ group covar…⁶
#>    <int>   <int> <chr>       <int> <chr>     <dbl> <chr>   <chr>   <int>   <dbl>
#>  1     1       4 subject101      1 visit1    0.753 trial2  arm1        1       0
#>  2     1       4 subject101      2 visit2   -1.43  trial2  arm1        1       0
#>  3     1       4 subject101      3 visit3   -2.02  trial2  arm1        1       0
#>  4     1       4 subject101      4 visit4    0.644 trial2  arm1        1       0
#>  5     1       5 subject102      1 visit1    1.38  trial2  arm1        1       0
#>  6     1       5 subject102      2 visit2   -2.63  trial2  arm1        1       0
#>  7     1       5 subject102      3 visit3    0.865 trial2  arm1        1       0
#>  8     1       5 subject102      4 visit4    0.262 trial2  arm1        1       0
#>  9     1       6 subject103      1 visit1   -0.791 trial2  arm1        1       0
#> 10     1       6 subject103      2 visit2   -2.09  trial2  arm1        1       0
#> # … with 1,590 more rows, 1 more variable: covariate_cov2 <dbl>, and
#> #   abbreviated variable names ¹​patient_label, ²​rep_label, ³​response,
#> #   ⁴​study_label, ⁵​group_label, ⁶​covariate_cov1
…
