Usage • historicalborrowlong
…
    trial = study,
    arm = group,
    subject = patient,
    visit = rep,
    factor1 = covariate_study1_continuous1,
    factor2 = covariate_study2_continuous1
  ) %>%
  mutate(
    trial = paste0("trial", trial),
    arm = paste0("arm", arm),
    subject = paste0("subject", subject),
    visit = paste0("visit", visit),
  )
data
#> # A tibble: 160 × 8
#>    trial  arm   subject  visit  factor1 factor2 covariate_study3_conti…¹ outcome
#>    <chr>  <chr> <chr>    <chr>    <dbl>   <dbl>                    <dbl>   <dbl>
#>  1 trial1 arm1  subject1 visit1   0.764       0                        0  2.82  
#>  2 trial1 arm1  subject1 visit2   0.764       0                        0  3.40  
#>  3 trial1 arm1  subject1 visit3   0.764       0                        0  3.30  
#>  4 trial1 arm1  subject1 visit4   0.764       0                        0  3.02  
#>  5 trial1 arm1  subject2 visit1  -0.799       0                        0 -0.504 
#>  6 trial1 arm1  subject2 visit2  -0.799       0                        0  0.0952
#>  7 trial1 arm1  subject2 visit3  -0.799       0                        0  0.441 
#>  8 trial1 arm1  subject2 visit4  -0.799       0                        0 -0.0921
#>  9 trial1 arm1  subject3 visit1  -1.15        0                        0 -0.0738
#> 10 trial1 arm1  subject3 visit2  -1.15        0                        0 -1.13  
#> # ℹ 150 more rows
#> # ℹ abbreviated name: ¹​covariate_study3_continuous1
…
standardized_data <- hbl_data(
  data = data,
  response = "outcome",
  study = "trial",
  study_reference = "trial3",
  group = "arm",
  group_reference = "arm1",
  patient = "subject",
  rep = "visit",
  rep_reference = "visit1",
  # Can be continuous, categorical, or binary columns:
  covariates = c("factor1", "factor2")
)
standardized_data
#> # A tibble: 160 × 11
#>    study patient patient_label   rep rep_label response study_label group_label
#>    <int>   <int> <chr>         <int> <chr>        <dbl> <chr>       <chr>      
#>  1     1       1 subject1          1 visit1      2.82   trial1      arm1       
#>  2     1       1 subject1          2 visit2      3.40   trial1      arm1       
#>  3     1       1 subject1          3 visit3      3.30   trial1      arm1       
#>  4     1       1 subject1          4 visit4      3.02   trial1      arm1       
#>  5     1       2 subject10         1 visit1      0.343  trial1      arm1       
#>  6     1       2 subject10         2 visit2     -1.46   trial1      arm1       
#>  7     1       2 subject10         3 visit3     -0.747  trial1      arm1       
#>  8     1       2 subject10         4 visit4      0.155  trial1      arm1       
#>  9     1      12 subject2          1 visit1     -0.504  trial1      arm1       
#> 10     1      12 subject2          2 visit2      0.0952 trial1      arm1       
#> # ℹ 150 more rows
#> # ℹ 3 more variables: group <int>, covariate_factor1 <dbl>,
#> #   covariate_factor2 <dbl>
…
mcmc_hierarchical
#> # A tibble: 200 × 69
#>    `alpha[1]` `alpha[2]` `alpha[3]` `alpha[4]` `alpha[5]` `alpha[6]` `alpha[7]`
#>         <dbl>      <dbl>      <dbl>      <dbl>      <dbl>      <dbl>      <dbl>
#>  1      1.07       0.775      1.01       0.741      1.34       0.980      1.12 
#>  2      0.827      1.17       1.05       1.01       0.227      0.981      1.19 
#>  3      1.65       0.369      0.999      1.49       0.564      0.990      1.29 
#>  4      0.630      1.33       0.963      0.796      0.184      0.981      0.951
#>  5      1.07       1.09       1.05       0.633      0.230      0.980      1.06 
#>  6      1.59       0.917      0.969      1.26       0.291      0.971      0.841
#>  7      1.31       0.793      1.05       0.658      0.607      0.991      1.20 
#>  8      0.992      0.942      1.03       1.37       0.543      0.982      1.08 
#>  9      1.43       1.03       0.991      0.931      0.404      0.985      0.918
#> 10      1.06       0.831      0.989      1.14       0.559      0.992      1.31 
#> # ℹ 190 more rows
#> # ℹ 62 more variables: `alpha[8]` <dbl>, `alpha[9]` <dbl>, `alpha[10]` <dbl>,
#> #   `alpha[11]` <dbl>, `alpha[12]` <dbl>, `delta[1]` <dbl>, `delta[2]` <dbl>,
#> #   `delta[3]` <dbl>, `delta[4]` <dbl>, `beta[1]` <dbl>, `beta[2]` <dbl>,
#> #   `sigma[1,1]` <dbl>, `sigma[2,1]` <dbl>, `sigma[3,1]` <dbl>,
#> #   `sigma[1,2]` <dbl>, `sigma[2,2]` <dbl>, `sigma[3,2]` <dbl>,
#> #   `sigma[1,3]` <dbl>, `sigma[2,3]` <dbl>, `sigma[3,3]` <dbl>, …
…
mcmc_pool
#> # A tibble: 200 × 53
#>    `alpha[1]` `alpha[2]` `alpha[3]` `alpha[4]` `delta[1]` `delta[2]` `delta[3]`
#>         <dbl>      <dbl>      <dbl>      <dbl>      <dbl>      <dbl>      <dbl>
#>  1      0.920      0.978      1.04       0.820      0.102      0.217      0.130
#>  2      1.18       0.997      0.959      0.989     -0.277     -0.169     -0.431
#>  3      0.820      0.990      1.03       0.609     -0.808     -0.262     -0.581
#>  4      0.887      0.980      1.06       0.938     -1.00      -0.284     -0.815
#>  5      1.09       0.971      0.944      0.962     -0.409      0.242     -0.144
#>  6      0.995      0.971      0.990      0.963     -0.201      0.368     -0.216
#>  7      0.924      0.998      1.05       0.906      0.628      0.689      0.783
#>  8      1.06       0.986      1.01       0.923      0.798      1.66       0.918
#>  9      1.05       0.977      0.959      0.956     -0.338      0.283     -0.200
#> 10      1.17       0.976      1.04       1.09       0.244      0.680      0.305
#> # ℹ 190 more rows
#> # ℹ 46 more variables: `delta[4]` <dbl>, `beta[1]` <dbl>, `beta[2]` <dbl>,
#> #   `sigma[1,1]` <dbl>, `sigma[2,1]` <dbl>, `sigma[3,1]` <dbl>,
#> #   `sigma[1,2]` <dbl>, `sigma[2,2]` <dbl>, `sigma[3,2]` <dbl>,
#> #   `sigma[1,3]` <dbl>, `sigma[2,3]` <dbl>, `sigma[3,3]` <dbl>,
#> #   `sigma[1,4]` <dbl>, `sigma[2,4]` <dbl>, `sigma[3,4]` <dbl>, lp__ <dbl>,
#> #   .chain <int>, .iteration <int>, .draw <int>, …
…
mcmc_independent
#> # A tibble: 200 × 61
#>    `alpha[1]` `alpha[2]` `alpha[3]` `alpha[4]` `alpha[5]` `alpha[6]` `alpha[7]`
#>         <dbl>      <dbl>      <dbl>      <dbl>      <dbl>      <dbl>      <dbl>
#>  1      1.69       0.351      1.13       1.43       0.322      0.987      1.02 
#>  2      0.842      1.55       0.941      0.311      0.458      0.984      1.14 
#>  3      1.38       0.974      1.02       1.28       0.397      0.990      1.15 
#>  4      1.27       0.913      0.981      1.17       0.701      0.978      0.910
#>  5      1.17       1.11       0.960      0.651      0.630      0.991      1.28 
#>  6      1.18       0.906      1.10       0.960      0.179      0.990      1.19 
#>  7      0.839      1.21       0.936      0.483      0.535      1.01       1.44 
#>  8      1.00       1.34       0.951      0.517      0.695      1.01       1.61 
#>  9      0.915      0.973      0.962      0.458      0.137      0.975      1.54 
#> 10      1.23       1.05       0.939      0.598      0.301      0.994      1.20 
#> # ℹ 190 more rows
#> # ℹ 54 more variables: `alpha[8]` <dbl>, `alpha[9]` <dbl>, `alpha[10]` <dbl>,
#> #   `alpha[11]` <dbl>, `alpha[12]` <dbl>, `delta[1]` <dbl>, `delta[2]` <dbl>,
#> #   `delta[3]` <dbl>, `delta[4]` <dbl>, `beta[1]` <dbl>, `beta[2]` <dbl>,
#> #   `sigma[1,1]` <dbl>, `sigma[2,1]` <dbl>, `sigma[3,1]` <dbl>,
#> #   `sigma[1,2]` <dbl>, `sigma[2,2]` <dbl>, `sigma[3,2]` <dbl>,
#> #   `sigma[1,3]` <dbl>, `sigma[2,3]` <dbl>, `sigma[3,3]` <dbl>, …
…
